^D:\FICHIERS\DRIVE\3AS1\_PST EMULATEUR\PROJETS\PST_EMULATOR_V2\PST_EMULATOR_V2\CPU.CPP|D:\FICHIERS\DRIVE\3AS1\_PST EMULATEUR\PROJETS\PST_EMULATOR_V2\PST_EMULATOR_V2\CPUCODES.CPP|D:\FICHIERS\DRIVE\3AS1\_PST EMULATEUR\PROJETS\PST_EMULATOR_V2\PST_EMULATOR_V2\CPUCODESCB.CPP|D:\FICHIERS\DRIVE\3AS1\_PST EMULATEUR\PROJETS\PST_EMULATOR_V2\PST_EMULATOR_V2\GENERATEDFILES\DEBUG\MOC_CPU.CPP|D:\FICHIERS\DRIVE\3AS1\_PST EMULATEUR\PROJETS\PST_EMULATOR_V2\PST_EMULATOR_V2\GENERATEDFILES\DEBUG\MOC_GLRENDER.CPP|D:\FICHIERS\DRIVE\3AS1\_PST EMULATEUR\PROJETS\PST_EMULATOR_V2\PST_EMULATOR_V2\GENERATEDFILES\DEBUG\MOC_GPU.CPP|D:\FICHIERS\DRIVE\3AS1\_PST EMULATEUR\PROJETS\PST_EMULATOR_V2\PST_EMULATOR_V2\GENERATEDFILES\DEBUG\MOC_INPUTS.CPP|D:\FICHIERS\DRIVE\3AS1\_PST EMULATEUR\PROJETS\PST_EMULATOR_V2\PST_EMULATOR_V2\GENERATEDFILES\DEBUG\MOC_PST_EMULATOR_V2.CPP|D:\FICHIERS\DRIVE\3AS1\_PST EMULATEUR\PROJETS\PST_EMULATOR_V2\PST_EMULATOR_V2\GENERATEDFILES\QRC_PST_EMULATOR_V2.CPP|D:\FICHIERS\DRIVE\3AS1\_PST EMULATEUR\PROJETS\PST_EMULATOR_V2\PST_EMULATOR_V2\GLRENDER.CPP|D:\FICHIERS\DRIVE\3AS1\_PST EMULATEUR\PROJETS\PST_EMULATOR_V2\PST_EMULATOR_V2\GPU.CPP|D:\FICHIERS\DRIVE\3AS1\_PST EMULATEUR\PROJETS\PST_EMULATOR_V2\PST_EMULATOR_V2\INPUTS.CPP|D:\FICHIERS\DRIVE\3AS1\_PST EMULATEUR\PROJETS\PST_EMULATOR_V2\PST_EMULATOR_V2\MAIN.CPP|D:\FICHIERS\DRIVE\3AS1\_PST EMULATEUR\PROJETS\PST_EMULATOR_V2\PST_EMULATOR_V2\PST_EMULATOR_V2.CPP
D:\FICHIERS\DRIVE\3AS1\_PST EMULATEUR\PROJETS\PST_EMULATOR_V2\PST_EMULATOR_V2\X64\DEBUG\CPUCODESCB.OBJ
D:\FICHIERS\DRIVE\3AS1\_PST EMULATEUR\PROJETS\PST_EMULATOR_V2\PST_EMULATOR_V2\X64\DEBUG\MOC_CPU.OBJ
D:\FICHIERS\DRIVE\3AS1\_PST EMULATEUR\PROJETS\PST_EMULATOR_V2\PST_EMULATOR_V2\X64\DEBUG\MOC_GPU.OBJ
D:\FICHIERS\DRIVE\3AS1\_PST EMULATEUR\PROJETS\PST_EMULATOR_V2\PST_EMULATOR_V2\X64\DEBUG\MOC_PST_EMULATOR_V2.OBJ
D:\FICHIERS\DRIVE\3AS1\_PST EMULATEUR\PROJETS\PST_EMULATOR_V2\PST_EMULATOR_V2\X64\DEBUG\CPU.OBJ
D:\FICHIERS\DRIVE\3AS1\_PST EMULATEUR\PROJETS\PST_EMULATOR_V2\PST_EMULATOR_V2\X64\DEBUG\MOC_GLRENDER.OBJ
D:\FICHIERS\DRIVE\3AS1\_PST EMULATEUR\PROJETS\PST_EMULATOR_V2\PST_EMULATOR_V2\X64\DEBUG\CPUCODES.OBJ
D:\FICHIERS\DRIVE\3AS1\_PST EMULATEUR\PROJETS\PST_EMULATOR_V2\PST_EMULATOR_V2\X64\DEBUG\GPU.OBJ
D:\FICHIERS\DRIVE\3AS1\_PST EMULATEUR\PROJETS\PST_EMULATOR_V2\PST_EMULATOR_V2\X64\DEBUG\MOC_INPUTS.OBJ
D:\FICHIERS\DRIVE\3AS1\_PST EMULATEUR\PROJETS\PST_EMULATOR_V2\PST_EMULATOR_V2\X64\DEBUG\QRC_PST_EMULATOR_V2.OBJ
D:\FICHIERS\DRIVE\3AS1\_PST EMULATEUR\PROJETS\PST_EMULATOR_V2\PST_EMULATOR_V2\X64\DEBUG\INPUTS.OBJ
D:\FICHIERS\DRIVE\3AS1\_PST EMULATEUR\PROJETS\PST_EMULATOR_V2\PST_EMULATOR_V2\X64\DEBUG\MAIN.OBJ
D:\FICHIERS\DRIVE\3AS1\_PST EMULATEUR\PROJETS\PST_EMULATOR_V2\PST_EMULATOR_V2\X64\DEBUG\GLRENDER.OBJ
D:\FICHIERS\DRIVE\3AS1\_PST EMULATEUR\PROJETS\PST_EMULATOR_V2\PST_EMULATOR_V2\X64\DEBUG\PST_EMULATOR_V2.OBJ
^D:\FICHIERS\DRIVE\3AS1\_PST EMULATEUR\PROJETS\PST_EMULATOR_V2\PST_EMULATOR_V2\GENERATEDFILES\DEBUG\MOC_INPUTS.CPP
D:\FICHIERS\DRIVE\3AS1\_PST EMULATEUR\PROJETS\PST_EMULATOR_V2\PST_EMULATOR_V2\X64\DEBUG\VC141.PDB
^D:\FICHIERS\DRIVE\3AS1\_PST EMULATEUR\PROJETS\PST_EMULATOR_V2\PST_EMULATOR_V2\GENERATEDFILES\QRC_PST_EMULATOR_V2.CPP
D:\FICHIERS\DRIVE\3AS1\_PST EMULATEUR\PROJETS\PST_EMULATOR_V2\PST_EMULATOR_V2\X64\DEBUG\VC141.PDB
^D:\FICHIERS\DRIVE\3AS1\_PST EMULATEUR\PROJETS\PST_EMULATOR_V2\PST_EMULATOR_V2\CPU.CPP|D:\FICHIERS\DRIVE\3AS1\_PST EMULATEUR\PROJETS\PST_EMULATOR_V2\PST_EMULATOR_V2\CPUCODES.CPP|D:\FICHIERS\DRIVE\3AS1\_PST EMULATEUR\PROJETS\PST_EMULATOR_V2\PST_EMULATOR_V2\CPUCODESCB.CPP|D:\FICHIERS\DRIVE\3AS1\_PST EMULATEUR\PROJETS\PST_EMULATOR_V2\PST_EMULATOR_V2\GENERATEDFILES\DEBUG\MOC_CPU.CPP|D:\FICHIERS\DRIVE\3AS1\_PST EMULATEUR\PROJETS\PST_EMULATOR_V2\PST_EMULATOR_V2\GENERATEDFILES\DEBUG\MOC_GLRENDER.CPP|D:\FICHIERS\DRIVE\3AS1\_PST EMULATEUR\PROJETS\PST_EMULATOR_V2\PST_EMULATOR_V2\GENERATEDFILES\DEBUG\MOC_GPU.CPP|D:\FICHIERS\DRIVE\3AS1\_PST EMULATEUR\PROJETS\PST_EMULATOR_V2\PST_EMULATOR_V2\GENERATEDFILES\DEBUG\MOC_PST_EMULATOR_V2.CPP|D:\FICHIERS\DRIVE\3AS1\_PST EMULATEUR\PROJETS\PST_EMULATOR_V2\PST_EMULATOR_V2\GLRENDER.CPP|D:\FICHIERS\DRIVE\3AS1\_PST EMULATEUR\PROJETS\PST_EMULATOR_V2\PST_EMULATOR_V2\GPU.CPP|D:\FICHIERS\DRIVE\3AS1\_PST EMULATEUR\PROJETS\PST_EMULATOR_V2\PST_EMULATOR_V2\MAIN.CPP|D:\FICHIERS\DRIVE\3AS1\_PST EMULATEUR\PROJETS\PST_EMULATOR_V2\PST_EMULATOR_V2\PST_EMULATOR_V2.CPP
D:\FICHIERS\DRIVE\3AS1\_PST EMULATEUR\PROJETS\PST_EMULATOR_V2\PST_EMULATOR_V2\X64\DEBUG\GLRENDER.OBJ
D:\FICHIERS\DRIVE\3AS1\_PST EMULATEUR\PROJETS\PST_EMULATOR_V2\PST_EMULATOR_V2\X64\DEBUG\MAIN.OBJ
D:\FICHIERS\DRIVE\3AS1\_PST EMULATEUR\PROJETS\PST_EMULATOR_V2\PST_EMULATOR_V2\X64\DEBUG\CPUCODESCB.OBJ
D:\FICHIERS\DRIVE\3AS1\_PST EMULATEUR\PROJETS\PST_EMULATOR_V2\PST_EMULATOR_V2\X64\DEBUG\GPU.OBJ
D:\FICHIERS\DRIVE\3AS1\_PST EMULATEUR\PROJETS\PST_EMULATOR_V2\PST_EMULATOR_V2\X64\DEBUG\MOC_PST_EMULATOR_V2.OBJ
D:\FICHIERS\DRIVE\3AS1\_PST EMULATEUR\PROJETS\PST_EMULATOR_V2\PST_EMULATOR_V2\X64\DEBUG\CPU.OBJ
D:\FICHIERS\DRIVE\3AS1\_PST EMULATEUR\PROJETS\PST_EMULATOR_V2\PST_EMULATOR_V2\X64\DEBUG\MOC_GLRENDER.OBJ
D:\FICHIERS\DRIVE\3AS1\_PST EMULATEUR\PROJETS\PST_EMULATOR_V2\PST_EMULATOR_V2\X64\DEBUG\CPUCODES.OBJ
D:\FICHIERS\DRIVE\3AS1\_PST EMULATEUR\PROJETS\PST_EMULATOR_V2\PST_EMULATOR_V2\X64\DEBUG\MOC_CPU.OBJ
D:\FICHIERS\DRIVE\3AS1\_PST EMULATEUR\PROJETS\PST_EMULATOR_V2\PST_EMULATOR_V2\X64\DEBUG\MOC_GPU.OBJ
D:\FICHIERS\DRIVE\3AS1\_PST EMULATEUR\PROJETS\PST_EMULATOR_V2\PST_EMULATOR_V2\X64\DEBUG\PST_EMULATOR_V2.OBJ
^D:\FICHIERS\DRIVE\3AS1\_PST EMULATEUR\PROJETS\PST_EMULATOR_V2\PST_EMULATOR_V2\CPUCODES.CPP
D:\FICHIERS\DRIVE\3AS1\_PST EMULATEUR\PROJETS\PST_EMULATOR_V2\PST_EMULATOR_V2\X64\DEBUG\VC141.PDB
^D:\FICHIERS\DRIVE\3AS1\_PST EMULATEUR\PROJETS\PST_EMULATOR_V2\PST_EMULATOR_V2\CPUCODESCB.CPP
D:\FICHIERS\DRIVE\3AS1\_PST EMULATEUR\PROJETS\PST_EMULATOR_V2\PST_EMULATOR_V2\X64\DEBUG\VC141.PDB
^D:\FICHIERS\DRIVE\3AS1\_PST EMULATEUR\PROJETS\PST_EMULATOR_V2\PST_EMULATOR_V2\GLRENDER.CPP
D:\FICHIERS\DRIVE\3AS1\_PST EMULATEUR\PROJETS\PST_EMULATOR_V2\PST_EMULATOR_V2\X64\DEBUG\VC141.PDB
^D:\FICHIERS\DRIVE\3AS1\_PST EMULATEUR\PROJETS\PST_EMULATOR_V2\PST_EMULATOR_V2\GENERATEDFILES\DEBUG\MOC_CPU.CPP
D:\FICHIERS\DRIVE\3AS1\_PST EMULATEUR\PROJETS\PST_EMULATOR_V2\PST_EMULATOR_V2\X64\DEBUG\VC141.PDB
^D:\FICHIERS\DRIVE\3AS1\_PST EMULATEUR\PROJETS\PST_EMULATOR_V2\PST_EMULATOR_V2\GENERATEDFILES\DEBUG\MOC_GLRENDER.CPP
D:\FICHIERS\DRIVE\3AS1\_PST EMULATEUR\PROJETS\PST_EMULATOR_V2\PST_EMULATOR_V2\X64\DEBUG\VC141.PDB
^D:\FICHIERS\DRIVE\3AS1\_PST EMULATEUR\PROJETS\PST_EMULATOR_V2\PST_EMULATOR_V2\GENERATEDFILES\DEBUG\MOC_GPU.CPP
D:\FICHIERS\DRIVE\3AS1\_PST EMULATEUR\PROJETS\PST_EMULATOR_V2\PST_EMULATOR_V2\X64\DEBUG\VC141.PDB
^D:\FICHIERS\DRIVE\3AS1\_PST EMULATEUR\PROJETS\PST_EMULATOR_V2\PST_EMULATOR_V2\GENERATEDFILES\DEBUG\MOC_PST_EMULATOR_V2.CPP
D:\FICHIERS\DRIVE\3AS1\_PST EMULATEUR\PROJETS\PST_EMULATOR_V2\PST_EMULATOR_V2\X64\DEBUG\VC141.PDB
^D:\FICHIERS\DRIVE\3AS1\_PST EMULATEUR\PROJETS\PST_EMULATOR_V2\PST_EMULATOR_V2\MAIN.CPP
D:\FICHIERS\DRIVE\3AS1\_PST EMULATEUR\PROJETS\PST_EMULATOR_V2\PST_EMULATOR_V2\X64\DEBUG\VC141.PDB
^D:\FICHIERS\DRIVE\3AS1\_PST EMULATEUR\PROJETS\PST_EMULATOR_V2\PST_EMULATOR_V2\CPU.CPP|D:\FICHIERS\DRIVE\3AS1\_PST EMULATEUR\PROJETS\PST_EMULATOR_V2\PST_EMULATOR_V2\GPU.CPP|D:\FICHIERS\DRIVE\3AS1\_PST EMULATEUR\PROJETS\PST_EMULATOR_V2\PST_EMULATOR_V2\PST_EMULATOR_V2.CPP
D:\FICHIERS\DRIVE\3AS1\_PST EMULATEUR\PROJETS\PST_EMULATOR_V2\PST_EMULATOR_V2\X64\DEBUG\GPU.OBJ
D:\FICHIERS\DRIVE\3AS1\_PST EMULATEUR\PROJETS\PST_EMULATOR_V2\PST_EMULATOR_V2\X64\DEBUG\PST_EMULATOR_V2.OBJ
D:\FICHIERS\DRIVE\3AS1\_PST EMULATEUR\PROJETS\PST_EMULATOR_V2\PST_EMULATOR_V2\X64\DEBUG\CPU.OBJ
^D:\FICHIERS\DRIVE\3AS1\_PST EMULATEUR\PROJETS\PST_EMULATOR_V2\PST_EMULATOR_V2\CPU.CPP
D:\FICHIERS\DRIVE\3AS1\_PST EMULATEUR\PROJETS\PST_EMULATOR_V2\PST_EMULATOR_V2\X64\DEBUG\VC141.PDB
^D:\FICHIERS\DRIVE\3AS1\_PST EMULATEUR\PROJETS\PST_EMULATOR_V2\PST_EMULATOR_V2\GPU.CPP
D:\FICHIERS\DRIVE\3AS1\_PST EMULATEUR\PROJETS\PST_EMULATOR_V2\PST_EMULATOR_V2\X64\DEBUG\VC141.PDB
^D:\FICHIERS\DRIVE\3AS1\_PST EMULATEUR\PROJETS\PST_EMULATOR_V2\PST_EMULATOR_V2\INPUTS.CPP|D:\FICHIERS\DRIVE\3AS1\_PST EMULATEUR\PROJETS\PST_EMULATOR_V2\PST_EMULATOR_V2\PST_EMULATOR_V2.CPP
D:\FICHIERS\DRIVE\3AS1\_PST EMULATEUR\PROJETS\PST_EMULATOR_V2\PST_EMULATOR_V2\X64\DEBUG\PST_EMULATOR_V2.OBJ
D:\FICHIERS\DRIVE\3AS1\_PST EMULATEUR\PROJETS\PST_EMULATOR_V2\PST_EMULATOR_V2\X64\DEBUG\INPUTS.OBJ
^D:\FICHIERS\DRIVE\3AS1\_PST EMULATEUR\PROJETS\PST_EMULATOR_V2\PST_EMULATOR_V2\INPUTS.CPP
D:\FICHIERS\DRIVE\3AS1\_PST EMULATEUR\PROJETS\PST_EMULATOR_V2\PST_EMULATOR_V2\X64\DEBUG\VC141.PDB
^D:\FICHIERS\DRIVE\3AS1\_PST EMULATEUR\PROJETS\PST_EMULATOR_V2\PST_EMULATOR_V2\PST_EMULATOR_V2.CPP
D:\FICHIERS\DRIVE\3AS1\_PST EMULATEUR\PROJETS\PST_EMULATOR_V2\PST_EMULATOR_V2\X64\DEBUG\VC141.PDB
^D:\FICHIERS\TEMP\3AS1\_PST EMULATEUR\PROJETS\PST_EMULATOR_V2\PST_EMULATOR_V2\CPU.CPP|D:\FICHIERS\TEMP\3AS1\_PST EMULATEUR\PROJETS\PST_EMULATOR_V2\PST_EMULATOR_V2\CPUCODES.CPP|D:\FICHIERS\TEMP\3AS1\_PST EMULATEUR\PROJETS\PST_EMULATOR_V2\PST_EMULATOR_V2\CPUCODESCB.CPP|D:\FICHIERS\TEMP\3AS1\_PST EMULATEUR\PROJETS\PST_EMULATOR_V2\PST_EMULATOR_V2\GLRENDER.CPP|D:\FICHIERS\TEMP\3AS1\_PST EMULATEUR\PROJETS\PST_EMULATOR_V2\PST_EMULATOR_V2\GPU.CPP|D:\FICHIERS\TEMP\3AS1\_PST EMULATEUR\PROJETS\PST_EMULATOR_V2\PST_EMULATOR_V2\INPUTS.CPP|D:\FICHIERS\TEMP\3AS1\_PST EMULATEUR\PROJETS\PST_EMULATOR_V2\PST_EMULATOR_V2\MAIN.CPP|D:\FICHIERS\TEMP\3AS1\_PST EMULATEUR\PROJETS\PST_EMULATOR_V2\PST_EMULATOR_V2\PST_EMULATOR_V2.CPP
^D:\FICHIERS\TEMP\3AS1\_PST EMULATEUR\PROJETS\PST_EMULATOR_V2\PST_EMULATOR_V2\CPU.CPP
D:\FICHIERS\TEMP\3AS1\_PST EMULATEUR\PROJETS\PST_EMULATOR_V2\PST_EMULATOR_V2\X64\DEBUG\CPU.OBJ
^D:\FICHIERS\TEMP\3AS1\_PST EMULATEUR\PROJETS\PST_EMULATOR_V2\PST_EMULATOR_V2\CPUCODES.CPP
D:\FICHIERS\TEMP\3AS1\_PST EMULATEUR\PROJETS\PST_EMULATOR_V2\PST_EMULATOR_V2\X64\DEBUG\CPUCODES.OBJ
^D:\FICHIERS\TEMP\3AS1\_PST EMULATEUR\PROJETS\PST_EMULATOR_V2\PST_EMULATOR_V2\CPUCODESCB.CPP
D:\FICHIERS\TEMP\3AS1\_PST EMULATEUR\PROJETS\PST_EMULATOR_V2\PST_EMULATOR_V2\X64\DEBUG\CPUCODESCB.OBJ
^D:\FICHIERS\TEMP\3AS1\_PST EMULATEUR\PROJETS\PST_EMULATOR_V2\PST_EMULATOR_V2\GLRENDER.CPP
D:\FICHIERS\TEMP\3AS1\_PST EMULATEUR\PROJETS\PST_EMULATOR_V2\PST_EMULATOR_V2\X64\DEBUG\GLRENDER.OBJ
^D:\FICHIERS\TEMP\3AS1\_PST EMULATEUR\PROJETS\PST_EMULATOR_V2\PST_EMULATOR_V2\GPU.CPP
D:\FICHIERS\TEMP\3AS1\_PST EMULATEUR\PROJETS\PST_EMULATOR_V2\PST_EMULATOR_V2\X64\DEBUG\GPU.OBJ
^D:\FICHIERS\TEMP\3AS1\_PST EMULATEUR\PROJETS\PST_EMULATOR_V2\PST_EMULATOR_V2\INPUTS.CPP
D:\FICHIERS\TEMP\3AS1\_PST EMULATEUR\PROJETS\PST_EMULATOR_V2\PST_EMULATOR_V2\X64\DEBUG\INPUTS.OBJ
^D:\FICHIERS\TEMP\3AS1\_PST EMULATEUR\PROJETS\PST_EMULATOR_V2\PST_EMULATOR_V2\MAIN.CPP
D:\FICHIERS\TEMP\3AS1\_PST EMULATEUR\PROJETS\PST_EMULATOR_V2\PST_EMULATOR_V2\X64\DEBUG\MAIN.OBJ
^D:\FICHIERS\TEMP\3AS1\_PST EMULATEUR\PROJETS\PST_EMULATOR_V2\PST_EMULATOR_V2\PST_EMULATOR_V2.CPP
D:\FICHIERS\TEMP\3AS1\_PST EMULATEUR\PROJETS\PST_EMULATOR_V2\PST_EMULATOR_V2\X64\DEBUG\PST_EMULATOR_V2.OBJ
