#Command: "C:\Program Files (x86)\Microsoft Visual Studio\2019\Enterprise\VC\Tools\MSVC\14.21.27702\bin\HostX86\x64\link.exe" /ERRORREPORT:PROMPT @C:\Users\DUGUEClovis\AppData\Local\Temp\tmp6f6e3caee51b4db58913f56ec0587ec4.rsp /nologo /incremental /fullbuild
^D:\FICHIERS\DRIVE\3AS1\_PST EMULATEUR\PROJETS\PST_EMULATOR_V2\PST_EMULATOR_V2\X64\DEBUG\MAIN.OBJ|D:\FICHIERS\DRIVE\3AS1\_PST EMULATEUR\PROJETS\PST_EMULATOR_V2\PST_EMULATOR_V2\X64\DEBUG\MOC_MYGLWIDGET.OBJ|D:\FICHIERS\DRIVE\3AS1\_PST EMULATEUR\PROJETS\PST_EMULATOR_V2\PST_EMULATOR_V2\X64\DEBUG\MOC_MYWINDOW.OBJ|D:\FICHIERS\DRIVE\3AS1\_PST EMULATEUR\PROJETS\PST_EMULATOR_V2\PST_EMULATOR_V2\X64\DEBUG\MOC_PST_EMULATOR_V2.OBJ|D:\FICHIERS\DRIVE\3AS1\_PST EMULATEUR\PROJETS\PST_EMULATOR_V2\PST_EMULATOR_V2\X64\DEBUG\MYGLWIDGET.OBJ|D:\FICHIERS\DRIVE\3AS1\_PST EMULATEUR\PROJETS\PST_EMULATOR_V2\PST_EMULATOR_V2\X64\DEBUG\MYWINDOW.OBJ|D:\FICHIERS\DRIVE\3AS1\_PST EMULATEUR\PROJETS\PST_EMULATOR_V2\PST_EMULATOR_V2\X64\DEBUG\PST_EMULATOR_V2.OBJ|D:\FICHIERS\DRIVE\3AS1\_PST EMULATEUR\PROJETS\PST_EMULATOR_V2\PST_EMULATOR_V2\X64\DEBUG\QRC_PST_EMULATOR_V2.OBJ
D:\FICHIERS\DRIVE\3AS1\_PST EMULATEUR\PROJETS\PST_EMULATOR_V2\X64\DEBUG\PST_EMULATOR_V2.PDB
