^D:\FICHIERS\DRIVE\3AS1\_PST EMULATEUR\PROJETS\PST_EMULATOR_V2\PST_EMULATOR_V2\PST_EMULATOR_V2.H
D:\FICHIERS\DRIVE\3AS1\_PST EMULATEUR\PROJETS\PST_EMULATOR_V2\PST_EMULATOR_V2\.\GENERATEDFILES\RELEASE\MOC_PST_EMULATOR_V2.CPP
^D:\FICHIERS\DRIVE\3AS1\_PST EMULATEUR\PROJETS\PST_EMULATOR_V2\PST_EMULATOR_V2\GLRENDER.H
D:\FICHIERS\DRIVE\3AS1\_PST EMULATEUR\PROJETS\PST_EMULATOR_V2\PST_EMULATOR_V2\.\GENERATEDFILES\RELEASE\MOC_GLRENDER.CPP
